<?xml version="1.0" standalone="no"?>
<!DOCTYPE svg PUBLIC "-//W3C//DTD SVG 1.1//EN" "http://www.w3.org/Graphics/SVG/1.1/DTD/svg11.dtd" >
<svg xmlns="http://www.w3.org/2000/svg">
<metadata>Generated by IcoMoon</metadata>
<defs>
<font id="icomoon" horiz-adv-x="1024">
<font-face units-per-em="1024" ascent="960" descent="-64" />
<missing-glyph horiz-adv-x="1024" />
<glyph unicode="&#x20;" horiz-adv-x="512" d="" />
<glyph unicode="&#xe900;" glyph-name="logo-mi" horiz-adv-x="833" d="M613.396 446.996c-55.216-55.216-122.478-83.325-200.784-83.325s-145.569 28.11-200.784 83.325c-55.216 55.216-83.325 122.478-83.325 200.784s28.11 145.569 83.325 200.784c55.216 55.216 122.478 83.325 200.784 83.325s145.569-28.11 200.784-83.325c55.216-55.216 83.325-122.478 83.325-200.784s-28.11-145.569-83.325-200.784zM242.949 516.267c47.184-47.184 103.404-70.275 169.663-70.275s122.478 23.090 169.663 70.275c47.184 47.184 70.275 103.404 70.275 169.663s-23.090 122.478-70.275 168.659c-47.184 46.18-103.404 70.275-168.659 70.275-66.259 0-122.478-23.090-169.663-70.275-46.18-46.18-70.275-103.404-70.275-168.659-1.004-66.259 22.086-123.482 69.271-169.663zM539.106 548.392c-35.137-35.137-77.302-53.208-127.498-53.208s-92.361 18.071-127.498 53.208c-35.137 35.137-52.204 78.306-52.204 127.498 0 50.196 18.071 92.361 53.208 127.498s77.302 53.208 127.498 53.208c49.192 0 92.361-18.071 127.498-53.208s53.208-78.306 53.208-127.498c-1.004-50.196-19.075-92.361-54.212-127.498zM304.188 591.561c29.114-29.114 65.255-44.173 107.42-44.173s78.306 15.059 107.42 44.173c29.114 30.118 44.173 65.255 44.173 107.42s-15.059 78.306-44.173 107.42c-29.114 29.114-65.255 44.173-107.42 44.173s-78.306-15.059-107.42-44.173c-29.114-29.114-44.173-65.255-44.173-107.42s15.059-77.302 44.173-107.42zM486.902 625.694c-21.082-21.082-45.176-31.122-75.294-31.122-29.114 0-54.212 10.039-75.294 31.122-20.078 21.082-31.122 46.18-31.122 75.294s10.039 54.212 31.122 75.294c20.078 20.078 45.176 31.122 75.294 31.122 29.114 0 54.212-10.039 75.294-31.122 20.078-20.078 31.122-45.176 31.122-75.294 0-29.114-11.043-54.212-31.122-75.294zM348.361 651.796c17.067-17.067 38.149-26.102 63.247-26.102s45.176 9.035 63.247 26.102c17.067 17.067 26.102 38.149 26.102 63.247s-9.035 46.18-26.102 63.247c-17.067 17.067-38.149 26.102-63.247 26.102s-46.18-9.035-63.247-26.102c-17.067-17.067-26.102-38.149-26.102-63.247s9.035-46.18 26.102-63.247zM41.161 165.898c0 6.024 5.020 10.039 10.039 10.039 6.024 0 10.039-4.016 10.039-10.039v-3.012c0-6.024-5.020-10.039-10.039-10.039-6.024 0-10.039 4.016-10.039 10.039v3.012zM43.169 118.714c0 5.020 4.016 9.035 9.035 9.035s9.035-4.016 9.035-9.035v-107.42c0-5.020-4.016-9.035-9.035-9.035s-9.035 4.016-9.035 9.035v107.42zM101.396 118.714c0 5.020 4.016 9.035 9.035 9.035s9.035-4.016 9.035-9.035v-12.047c8.031 12.047 18.071 23.090 38.149 23.090 19.075 0 31.122-11.043 38.149-25.098 8.031 14.055 21.082 25.098 41.161 25.098 27.106 0 44.173-19.075 44.173-50.196v-68.267c0-5.020-4.016-9.035-9.035-9.035s-9.035 4.016-9.035 9.035v64.251c0 24.094-11.043 37.145-30.118 37.145-18.071 0-32.125-14.055-32.125-38.149v-63.247c0-5.020-4.016-9.035-9.035-9.035s-9.035 4.016-9.035 9.035v64.251c0 23.090-12.047 37.145-30.118 37.145-19.075 0-33.129-16.063-33.129-39.153v-62.243c0-5.020-4.016-9.035-9.035-9.035s-9.035 4.016-9.035 9.035v107.42zM317.239 118.714c0 5.020 4.016 9.035 9.035 9.035s9.035-4.016 9.035-9.035v-17.067c10.039 15.059 23.090 27.106 45.176 27.106 28.11 0 56.22-23.090 56.22-64.251v0c0-40.157-28.11-64.251-56.22-64.251-22.086 0-36.141 12.047-45.176 26.102v-54.212c0-5.020-4.016-9.035-9.035-9.035s-9.035 4.016-9.035 9.035v146.573zM417.631 64.502v0c0 30.118-19.075 48.188-41.161 48.188s-42.165-19.075-42.165-47.184v0c0-29.114 21.082-48.188 42.165-48.188 23.090 0 41.161 17.067 41.161 47.184zM459.796 39.404v0c0 26.102 20.078 40.157 50.196 40.157 15.059 0 26.102-2.008 36.141-5.020v4.016c0 22.086-13.051 34.133-35.137 34.133-12.047 0-22.086-3.012-30.118-7.027-1.004 0-2.008-1.004-3.012-1.004-4.016 0-8.031 4.016-8.031 8.031s2.008 7.027 5.020 8.031c12.047 5.020 23.090 8.031 38.149 8.031 17.067 0 29.114-5.020 38.149-14.055 8.031-8.031 12.047-20.078 12.047-36.141v-67.263c0-5.020-4.016-9.035-8.031-9.035-5.020 0-8.031 4.016-8.031 9.035v11.043c-8.031-11.043-22.086-21.082-42.165-21.082-23.090-1.004-45.176 12.047-45.176 38.149zM546.133 48.439v12.047c-9.035 3.012-20.078 5.020-34.133 5.020-22.086 0-34.133-10.039-34.133-26.102v0c0-15.059 14.055-25.098 29.114-25.098 21.082 1.004 39.153 15.059 39.153 34.133zM592.314 64.502v0c0 35.137 26.102 65.255 60.235 65.255 20.078 0 33.129-8.031 43.169-18.071 1.004-1.004 3.012-4.016 3.012-6.024 0-5.020-4.016-9.035-8.031-9.035-2.008 0-4.016 1.004-6.024 2.008-8.031 8.031-18.071 15.059-32.125 15.059-24.094 0-42.165-21.082-42.165-48.188v0c0-27.106 19.075-48.188 43.169-48.188 13.051 0 24.094 6.024 33.129 15.059 1.004 1.004 3.012 2.008 5.020 2.008 4.016 0 8.031-4.016 8.031-8.031 0-2.008-1.004-4.016-2.008-6.024-11.043-12.047-24.094-20.078-44.173-20.078-35.137 0-61.239 29.114-61.239 64.251zM735.875 36.392v74.29h-10.039c-4.016 0-8.031 4.016-8.031 8.031 0 5.020 4.016 8.031 8.031 8.031h10.039v29.114c0 5.020 4.016 9.035 9.035 9.035s9.035-4.016 9.035-9.035v-29.114h30.118c4.016 0 8.031-4.016 8.031-8.031 0-5.020-4.016-8.031-8.031-8.031h-30.118v-72.282c0-15.059 8.031-21.082 20.078-21.082 6.024 0 9.035 2.008 11.043 2.008 4.016 0 7.027-4.016 7.027-8.031 0-3.012-2.008-6.024-5.020-7.027-5.020-2.008-10.039-3.012-17.067-3.012-20.078 0-34.133 10.039-34.133 35.137zM96.376 266.29c0 5.020 4.016 9.035 8.031 9.035 5.020 0 8.031-4.016 8.031-9.035v-12.047c7.027 11.043 17.067 22.086 35.137 22.086s29.114-10.039 35.137-23.090c8.031 13.051 19.075 23.090 38.149 23.090 25.098 0 40.157-18.071 40.157-46.18v-63.247c0-5.020-4.016-9.035-8.031-9.035-5.020 0-8.031 4.016-8.031 9.035v59.231c0 22.086-11.043 34.133-28.11 34.133-16.063 0-30.118-13.051-30.118-35.137v-58.227c0-5.020-4.016-9.035-8.031-9.035s-8.031 4.016-8.031 9.035v60.235c0 21.082-11.043 34.133-28.11 34.133s-30.118-15.059-30.118-36.141v-58.227c0-5.020-3.012-9.035-8.031-9.035s-8.031 4.016-8.031 9.035v99.388zM344.345 156.863c-30.118 0-54.212 24.094-54.212 59.231v0c0 33.129 22.086 59.231 52.204 59.231 32.125 0 50.196-28.11 50.196-58.227 0-5.020-4.016-8.031-8.031-8.031h-78.306c2.008-25.098 19.075-39.153 38.149-39.153 13.051 0 23.090 6.024 31.122 13.051 1.004 1.004 3.012 2.008 5.020 2.008 4.016 0 7.027-3.012 7.027-7.027 0-2.008-1.004-4.016-3.012-6.024-10.039-8.031-22.086-15.059-40.157-15.059zM376.471 223.122c-2.008 21.082-13.051 39.153-35.137 39.153-19.075 0-33.129-17.067-35.137-39.153h70.275zM525.051 166.902c0-5.020-4.016-9.035-8.031-9.035-5.020 0-8.031 4.016-8.031 9.035v15.059c-9.035-14.055-22.086-25.098-41.161-25.098-26.102 0-52.204 22.086-52.204 59.231v0c0 37.145 26.102 59.231 52.204 59.231 20.078 0 33.129-11.043 41.161-24.094v61.239c0 5.020 3.012 9.035 8.031 9.035s8.031-4.016 8.031-9.035v-145.569zM431.686 217.098v0c0-27.106 18.071-45.176 38.149-45.176s39.153 18.071 39.153 44.173v0c0 26.102-19.075 44.173-39.153 44.173-21.082 1.004-38.149-16.063-38.149-43.169zM561.192 309.459c0 6.024 4.016 9.035 9.035 9.035s10.039-4.016 10.039-9.035v-3.012c0-5.020-4.016-9.035-10.039-9.035-5.020 0-9.035 4.016-9.035 9.035v3.012zM562.196 266.29c0 5.020 4.016 9.035 8.031 9.035 5.020 0 8.031-4.016 8.031-9.035v-99.388c0-5.020-3.012-9.035-8.031-9.035s-8.031 4.016-8.031 9.035v99.388zM608.376 192v0c0 24.094 19.075 37.145 46.18 37.145 14.055 0 24.094-2.008 33.129-5.020v4.016c0 21.082-12.047 31.122-32.125 31.122-11.043 0-20.078-3.012-28.11-6.024-1.004 0-2.008-1.004-3.012-1.004-4.016 0-7.027 3.012-7.027 7.027s2.008 6.024 4.016 7.027c11.043 5.020 22.086 8.031 35.137 8.031 15.059 0 27.106-4.016 35.137-13.051 7.027-8.031 11.043-19.075 11.043-33.129v-61.239c0-5.020-3.012-8.031-8.031-8.031s-8.031 4.016-8.031 8.031v10.039c-8.031-10.039-20.078-20.078-39.153-20.078s-39.153 12.047-39.153 35.137zM688.69 201.035v11.043c-8.031 2.008-19.075 5.020-32.125 5.020-20.078 0-32.125-9.035-32.125-24.094v0c0-14.055 13.051-23.090 27.106-23.090 20.078 0 37.145 13.051 37.145 31.122z" />
<glyph unicode="&#xe901;" glyph-name="menu" d="M896 469.334h-768c-25.6 0-42.667-17.067-42.667-42.667s17.067-42.667 42.667-42.667h768c25.6 0 42.667 17.067 42.667 42.667s-17.067 42.667-42.667 42.667zM128 640h768c25.6 0 42.667 17.067 42.667 42.667s-17.067 42.667-42.667 42.667h-768c-25.6 0-42.667-17.067-42.667-42.667s17.067-42.667 42.667-42.667zM896 213.334h-768c-25.6 0-42.667-17.067-42.667-42.667s17.067-42.667 42.667-42.667h768c25.6 0 42.667 17.067 42.667 42.667s-17.067 42.667-42.667 42.667z" />
<glyph unicode="&#xea90;" glyph-name="facebook" d="M608 768h160v192h-160c-123.514 0-224-100.486-224-224v-96h-128v-192h128v-512h192v512h160l32 192h-192v96c0 17.346 14.654 32 32 32z" />
<glyph unicode="&#xeaca;" glyph-name="linkedin2" d="M384 576h177.106v-90.782h2.532c24.64 44.194 84.958 90.782 174.842 90.782 186.946 0 221.52-116.376 221.52-267.734v-308.266h-184.61v273.278c0 65.184-1.334 149.026-96.028 149.026-96.148 0-110.82-70.986-110.82-144.292v-278.012h-184.542v576zM64 576h192v-576h-192v576zM256 736c0-53.019-42.981-96-96-96s-96 42.981-96 96c0 53.019 42.981 96 96 96s96-42.981 96-96z" />
</font></defs></svg>